[
  {
    "id": "6156a530-b61f-4492-a921-bb4bc910debd",
    "firstName": "Rodriguez",
    "lastName": "Buchanan",
    "birthDate": "Wednesday, May 13, 2015 1:26 PM",
    "isAlive": true,
    "popularity": 96,
    "pictureUri": "http://placehold.it/64x64",
    "egot": 2
  },
  {
    "id": "e370b92c-6d39-4e99-b8b3-81b93d97d973",
    "firstName": "Ella",
    "lastName": "Buckley",
    "birthDate": "Thursday, July 2, 2009 9:39 PM",
    "isAlive": true,
    "popularity": "46.76",
    "pictureUri": "http://placehold.it/64x64",
    "egot": 2
  },
  {
    "id": "50ae6357-76bd-412b-8655-16d076ebe053",
    "firstName": "Bobbi",
    "lastName": "Sykes",
    "birthDate": "Wednesday, January 7, 1948 11:16 AM",
    "isAlive": false,
    "popularity": "27.34",
    "pictureUri": "http://placehold.it/64x64",
    "egot": 6
  },
  {
    "id": "ecdc13a2-be6d-4b1c-980f-0d4ca7de38c5",
    "firstName": "Colon",
    "lastName": "Jenkins",
    "birthDate": "Saturday, June 27, 1992 5:17 AM",
    "isAlive": true,
    "popularity": "95.54",
    "pictureUri": "http://placehold.it/64x64",
    "egot": 13
  },
  {
    "id": "c0590828-e5d6-4397-96c5-b5a2889bc6a8",
    "firstName": "Meadows",
    "lastName": "Mercado",
    "birthDate": "Thursday, January 16, 1941 8:57 AM",
    "isAlive": false,
    "popularity": "20.26",
    "pictureUri": "http://placehold.it/64x64",
    "egot": 10
  },
  {
    "id": "237f1da2-dd08-43c4-8b70-26c361ea8e62",
    "firstName": "Wendi",
    "lastName": "Peters",
    "birthDate": "Friday, July 5, 2019 7:54 PM",
    "isAlive": true,
    "popularity": "7.2",
    "pictureUri": "http://placehold.it/64x64",
    "egot": 7
  },
  {
    "id": "73194d76-0c74-4e62-9abe-98b8a793bff6",
    "firstName": "Petersen",
    "lastName": "Mathews",
    "birthDate": "Tuesday, September 5, 1972 7:41 AM",
    "isAlive": false,
    "popularity": "67.66",
    "pictureUri": "http://placehold.it/64x64",
    "egot": 6
  },
  {
    "id": "795b2fb2-5e15-44f2-890b-80e7acb9901e",
    "firstName": "Jefferson",
    "lastName": "Stone",
    "birthDate": "Friday, April 26, 1968 9:55 AM",
    "isAlive": true,
    "popularity": "54.91",
    "pictureUri": "http://placehold.it/64x64",
    "egot": 9
  },
  {
    "id": "3fee6dc3-9d46-4397-be56-178f6a2fa68d",
    "firstName": "Finley",
    "lastName": "Hurley",
    "birthDate": "Tuesday, May 23, 1972 12:55 PM",
    "isAlive": false,
    "popularity": "88.35",
    "pictureUri": "http://placehold.it/64x64",
    "egot": 4
  },
  {
    "id": "beca79a1-19fc-4bfb-aa20-84a3c96b7e91",
    "firstName": "Downs",
    "lastName": "Baldwin",
    "birthDate": "Sunday, June 18, 1967 8:42 AM",
    "isAlive": true,
    "popularity": "85.21",
    "pictureUri": "http://placehold.it/64x64",
    "egot": 0
  },
  {
    "id": "6f87098a-de31-4330-a9cf-48537ddc54b0",
    "firstName": "Adele",
    "lastName": "Faulkner",
    "birthDate": "Sunday, February 17, 2019 1:58 PM",
    "isAlive": true,
    "popularity": "53.52",
    "pictureUri": "http://placehold.it/64x64",
    "egot": 14
  },
  {
    "id": "aa690978-cdd9-42ad-8a0f-52a04f0d7a3d",
    "firstName": "Janette",
    "lastName": "Montoya",
    "birthDate": "Wednesday, February 24, 1999 9:01 PM",
    "isAlive": false,
    "popularity": "34.79",
    "pictureUri": "http://placehold.it/64x64",
    "egot": 1
  },
  {
    "id": "bd5c8579-d0a2-4c9a-8d5f-befd6df50e67",
    "firstName": "Bessie",
    "lastName": "Bell",
    "birthDate": "Wednesday, May 25, 1949 3:36 AM",
    "isAlive": false,
    "popularity": "45.22",
    "pictureUri": "http://placehold.it/64x64",
    "egot": 15
  },
  {
    "id": "444c3788-6f9a-4d9e-a0e5-dbdb0218cb80",
    "firstName": "Dale",
    "lastName": "Weaver",
    "birthDate": "Monday, March 7, 2016 4:09 AM",
    "isAlive": true,
    "popularity": "30.61",
    "pictureUri": "http://placehold.it/64x64",
    "egot": 8
  },
  {
    "id": "d09ad8fa-cc0f-43e4-b7f5-ed4d8bd1b3a7",
    "firstName": "Lucinda",
    "lastName": "Carroll",
    "birthDate": "Friday, July 22, 1949 9:42 AM",
    "isAlive": false,
    "popularity": "78.95",
    "pictureUri": "http://placehold.it/64x64",
    "egot": 15
  },
  {
    "id": "4a7122a1-bbed-40c8-a339-046e2a4dadcd",
    "firstName": "Marshall",
    "lastName": "Cannon",
    "birthDate": "Saturday, December 21, 2013 9:37 AM",
    "isAlive": false,
    "popularity": "78.59",
    "pictureUri": "http://placehold.it/64x64",
    "egot": 2
  },
  {
    "id": "68013176-c578-4a08-baeb-753d94816449",
    "firstName": "Shannon",
    "lastName": "Dillard",
    "birthDate": "Wednesday, April 25, 1962 11:19 PM",
    "isAlive": false,
    "popularity": "69.66",
    "pictureUri": "http://placehold.it/64x64",
    "egot": 9
  },
  {
    "id": "a7cbf102-f409-4bfa-9bfc-eba4de12db6c",
    "firstName": "Therese",
    "lastName": "Stout",
    "birthDate": "Thursday, November 16, 1989 11:45 PM",
    "isAlive": false,
    "popularity": "45.34",
    "pictureUri": "http://placehold.it/64x64",
    "egot": 12
  },
  {
    "id": "58c28847-085a-4dff-80db-679552d1a603",
    "firstName": "Matthews",
    "lastName": "Burch",
    "birthDate": "Tuesday, January 22, 1963 6:32 AM",
    "isAlive": false,
    "popularity": "58.8",
    "pictureUri": "http://placehold.it/64x64",
    "egot": 12
  },
  {
    "id": "c1b33cc1-f132-4226-914b-fc96c0ff585a",
    "firstName": "Darlene",
    "lastName": "Middleton",
    "birthDate": "Tuesday, April 21, 2009 9:19 AM",
    "isAlive": true,
    "popularity": "12.86",
    "pictureUri": "http://placehold.it/64x64",
    "egot": 15
  },
  {
    "id": "5e2dd2a7-d092-49b8-9e87-0cbfdc967294",
    "firstName": "Hooper",
    "lastName": "Clarke",
    "birthDate": "Thursday, June 18, 1970 9:40 AM",
    "isAlive": false,
    "popularity": "60.85",
    "pictureUri": "http://placehold.it/64x64",
    "egot": 7
  },
  {
    "id": "454701c6-e9dc-478b-bcf8-a0c6a9b4d643",
    "firstName": "Lula",
    "lastName": "Clark",
    "birthDate": "Wednesday, December 8, 2010 10:20 PM",
    "isAlive": true,
    "popularity": "29.45",
    "pictureUri": "http://placehold.it/64x64",
    "egot": 8
  },
  {
    "id": "a40dc672-3095-48e3-8227-51b8e4fa742f",
    "firstName": "Daniels",
    "lastName": "Bonner",
    "birthDate": "Tuesday, January 21, 1986 11:59 AM",
    "isAlive": true,
    "popularity": "53.61",
    "pictureUri": "http://placehold.it/64x64",
    "egot": 13
  },
  {
    "id": "b1ad1ab5-236e-4dff-b904-6f986686f12a",
    "firstName": "Kristy",
    "lastName": "Bush",
    "birthDate": "Tuesday, November 5, 2002 5:53 PM",
    "isAlive": false,
    "popularity": "71.45",
    "pictureUri": "http://placehold.it/64x64",
    "egot": 4
  },
  {
    "id": "fb3df351-c6ff-4622-b171-0a05bf5e66d4",
    "firstName": "Cross",
    "lastName": "Booth",
    "birthDate": "Wednesday, October 17, 1951 9:11 AM",
    "isAlive": false,
    "popularity": "65.49",
    "pictureUri": "http://placehold.it/64x64",
    "egot": 4
  },
  {
    "id": "5bb6a52b-ba2f-4741-a008-a48c74aac344",
    "firstName": "Casey",
    "lastName": "Hahn",
    "birthDate": "Sunday, November 26, 1939 8:34 PM",
    "isAlive": false,
    "popularity": "41.92",
    "pictureUri": "http://placehold.it/64x64",
    "egot": 1
  },
  {
    "id": "ce114fac-43b3-41e2-907e-090f3f0f6964",
    "firstName": "Nunez",
    "lastName": "Frazier",
    "birthDate": "Sunday, March 19, 1961 2:13 PM",
    "isAlive": false,
    "popularity": "46.28",
    "pictureUri": "http://placehold.it/64x64",
    "egot": 0
  },
  {
    "id": "bd0f73ce-a3e4-472f-ba2c-1cb81241d653",
    "firstName": "Neal",
    "lastName": "Gonzales",
    "birthDate": "Wednesday, August 2, 2006 4:38 PM",
    "isAlive": true,
    "popularity": "54.17",
    "pictureUri": "http://placehold.it/64x64",
    "egot": 13
  },
  {
    "id": "bff35278-a050-406e-bbd8-fd0ac766ed1b",
    "firstName": "Cora",
    "lastName": "Downs",
    "birthDate": "Tuesday, February 13, 1940 9:49 PM",
    "isAlive": false,
    "popularity": "44.39",
    "pictureUri": "http://placehold.it/64x64",
    "egot": 2
  },
  {
    "id": "2841cfae-43e0-447f-ba9c-61431168c9a6",
    "firstName": "Castillo",
    "lastName": "Kaufman",
    "birthDate": "Monday, February 26, 1990 1:34 AM",
    "isAlive": true,
    "popularity": "60.84",
    "pictureUri": "http://placehold.it/64x64",
    "egot": 10
  },
  {
    "id": "3e676c11-67ca-4839-a06d-2c233fd769f1",
    "firstName": "Dolores",
    "lastName": "Flynn",
    "birthDate": "Friday, December 8, 1939 1:31 PM",
    "isAlive": true,
    "popularity": "63.42",
    "pictureUri": "http://placehold.it/64x64",
    "egot": 3
  },
  {
    "id": "fee4cec5-0601-4d1f-8da3-152ce39b9306",
    "firstName": "Alexandra",
    "lastName": "Hart",
    "birthDate": "Saturday, July 19, 1997 3:43 PM",
    "isAlive": true,
    "popularity": "75.56",
    "pictureUri": "http://placehold.it/64x64",
    "egot": 5
  },
  {
    "id": "f718d6f0-7a98-41cc-8ca5-b4a76789019d",
    "firstName": "Katie",
    "lastName": "Randall",
    "birthDate": "Thursday, July 29, 1982 8:06 PM",
    "isAlive": true,
    "popularity": "90.11",
    "pictureUri": "http://placehold.it/64x64",
    "egot": 9
  },
  {
    "id": "ef021048-8ac7-48a5-9c20-fdc7af609df2",
    "firstName": "Tara",
    "lastName": "Doyle",
    "birthDate": "Tuesday, March 17, 1959 9:48 AM",
    "isAlive": true,
    "popularity": "81.04",
    "pictureUri": "http://placehold.it/64x64",
    "egot": 13
  },
  {
    "id": "09714f52-a79a-471c-ba58-57a5f87535ac",
    "firstName": "Natasha",
    "lastName": "Good",
    "birthDate": "Saturday, January 1, 1944 8:16 PM",
    "isAlive": false,
    "popularity": "45.06",
    "pictureUri": "http://placehold.it/64x64",
    "egot": 14
  },
  {
    "id": "0bddcf77-b211-4d26-8704-558d860ab510",
    "firstName": "Hanson",
    "lastName": "Pitts",
    "birthDate": "Friday, October 11, 1985 1:33 AM",
    "isAlive": false,
    "popularity": "7.58",
    "pictureUri": "http://placehold.it/64x64",
    "egot": 9
  },
  {
    "id": "25677a55-70b4-4f2e-b0c5-d145d74afdd2",
    "firstName": "Vilma",
    "lastName": "Frederick",
    "birthDate": "Wednesday, March 15, 2006 5:52 AM",
    "isAlive": false,
    "popularity": "48.17",
    "pictureUri": "http://placehold.it/64x64",
    "egot": 1
  },
  {
    "id": "5ee3fd13-983c-44ef-9ee5-63f8a48f7089",
    "firstName": "Lyons",
    "lastName": "Figueroa",
    "birthDate": "Tuesday, June 28, 1994 2:04 AM",
    "isAlive": false,
    "popularity": "69.88",
    "pictureUri": "http://placehold.it/64x64",
    "egot": 12
  },
  {
    "id": "f2829fed-44d5-4037-86c3-1e47fb2b613d",
    "firstName": "Black",
    "lastName": "Chase",
    "birthDate": "Tuesday, June 3, 1941 9:50 AM",
    "isAlive": false,
    "popularity": "74.07",
    "pictureUri": "http://placehold.it/64x64",
    "egot": 3
  },
  {
    "id": "0370f783-f90b-4231-8bc5-59dd33ecea24",
    "firstName": "Bishop",
    "lastName": "Greene",
    "birthDate": "Tuesday, January 6, 1959 10:10 AM",
    "isAlive": false,
    "popularity": "31.62",
    "pictureUri": "http://placehold.it/64x64",
    "egot": 15
  },
  {
    "id": "3ced5377-c37f-4eb5-97dc-ef06319741e8",
    "firstName": "Chandler",
    "lastName": "Oneal",
    "birthDate": "Monday, June 25, 2018 1:37 PM",
    "isAlive": false,
    "popularity": "54.2",
    "pictureUri": "http://placehold.it/64x64",
    "egot": 0
  },
  {
    "id": "768edfd8-9873-4c30-a3f5-96c33110c72d",
    "firstName": "Mack",
    "lastName": "Hoover",
    "birthDate": "Friday, August 30, 1963 5:42 AM",
    "isAlive": false,
    "popularity": "7.14",
    "pictureUri": "http://placehold.it/64x64",
    "egot": 2
  },
  {
    "id": "234a4cac-43ad-4dde-bf84-d9707d0b9aef",
    "firstName": "Whitaker",
    "lastName": "Watkins",
    "birthDate": "Tuesday, June 26, 1951 2:12 AM",
    "isAlive": false,
    "popularity": "52.13",
    "pictureUri": "http://placehold.it/64x64",
    "egot": 10
  },
  {
    "id": "abfd63a8-7009-46a8-b876-aae59c27d803",
    "firstName": "Lesley",
    "lastName": "Robles",
    "birthDate": "Friday, May 7, 2010 7:08 AM",
    "isAlive": true,
    "popularity": "21.22",
    "pictureUri": "http://placehold.it/64x64",
    "egot": 5
  },
  {
    "id": "fc1cbd4f-4380-4c2c-8dd3-bb5e864135f6",
    "firstName": "Hahn",
    "lastName": "Garza",
    "birthDate": "Thursday, September 1, 1977 7:19 PM",
    "isAlive": false,
    "popularity": "16.37",
    "pictureUri": "http://placehold.it/64x64",
    "egot": 3
  },
  {
    "id": "a679793e-4367-464f-8917-f5e3826d784b",
    "firstName": "Nancy",
    "lastName": "Mitchell",
    "birthDate": "Thursday, December 13, 1979 7:26 AM",
    "isAlive": false,
    "popularity": "52.71",
    "pictureUri": "http://placehold.it/64x64",
    "egot": 8
  },
  {
    "id": "5a6b557d-c7d4-4f8c-ba98-29b432da7b87",
    "firstName": "Anastasia",
    "lastName": "Haynes",
    "birthDate": "Tuesday, November 10, 1953 3:17 PM",
    "isAlive": true,
    "popularity": "62.93",
    "pictureUri": "http://placehold.it/64x64",
    "egot": 12
  },
  {
    "id": "f90ba86f-64c1-4882-8f5e-e76816f75354",
    "firstName": "Lesa",
    "lastName": "Hayden",
    "birthDate": "Saturday, February 17, 1945 1:23 PM",
    "isAlive": false,
    "popularity": "67.08",
    "pictureUri": "http://placehold.it/64x64",
    "egot": 9
  },
  {
    "id": "b7a3dc9d-044a-45a1-a78c-c5ef1a994c00",
    "firstName": "Hilary",
    "lastName": "Whitfield",
    "birthDate": "Saturday, February 14, 1976 1:42 AM",
    "isAlive": true,
    "popularity": 8,
    "pictureUri": "http://placehold.it/64x64",
    "egot": 11
  },
  {
    "id": "84d25026-0371-49ba-9c7c-72c068fb3ac1",
    "firstName": "Heather",
    "lastName": "Conrad",
    "birthDate": "Wednesday, February 16, 1972 1:35 PM",
    "isAlive": true,
    "popularity": 27,
    "pictureUri": "http://placehold.it/64x64",
    "egot": 14
  },
  {
    "id": "71e1947d-c94e-4054-a818-78ef0e4b619f",
    "firstName": "Langley",
    "lastName": "Cohen",
    "birthDate": "Wednesday, September 22, 1965 12:37 AM",
    "isAlive": false,
    "popularity": "94.84",
    "pictureUri": "http://placehold.it/64x64",
    "egot": 10
  },
  {
    "id": "e11b3dfa-f2ea-416f-8d1f-af64fd8b9b17",
    "firstName": "Pearl",
    "lastName": "Buck",
    "birthDate": "Tuesday, October 27, 1970 10:28 PM",
    "isAlive": true,
    "popularity": "49.93",
    "pictureUri": "http://placehold.it/64x64",
    "egot": 0
  },
  {
    "id": "e74876ca-6014-4d2a-9876-5c004369d84b",
    "firstName": "Evangeline",
    "lastName": "Walls",
    "birthDate": "Monday, August 28, 1961 8:28 PM",
    "isAlive": false,
    "popularity": "66.95",
    "pictureUri": "http://placehold.it/64x64",
    "egot": 10
  },
  {
    "id": "c6917703-4d1a-47c5-bba0-a841834b854a",
    "firstName": "Kimberley",
    "lastName": "Tran",
    "birthDate": "Sunday, March 5, 2017 4:47 PM",
    "isAlive": true,
    "popularity": "28.96",
    "pictureUri": "http://placehold.it/64x64",
    "egot": 10
  },
  {
    "id": "cecffcc5-e5bc-4b76-85bb-7088a7a2852e",
    "firstName": "Augusta",
    "lastName": "Lambert",
    "birthDate": "Thursday, April 6, 1944 4:27 AM",
    "isAlive": false,
    "popularity": "56.03",
    "pictureUri": "http://placehold.it/64x64",
    "egot": 12
  },
  {
    "id": "caa61bc2-a8f9-477c-ba52-2ed336979afd",
    "firstName": "Tucker",
    "lastName": "Rivas",
    "birthDate": "Monday, April 17, 1995 5:51 AM",
    "isAlive": false,
    "popularity": "32.88",
    "pictureUri": "http://placehold.it/64x64",
    "egot": 10
  },
  {
    "id": "47c97587-ff93-4a8a-a6fe-8f07ede27d57",
    "firstName": "Cotton",
    "lastName": "Hatfield",
    "birthDate": "Wednesday, July 19, 1961 5:25 PM",
    "isAlive": true,
    "popularity": "54.65",
    "pictureUri": "http://placehold.it/64x64",
    "egot": 8
  },
  {
    "id": "223c801f-ac81-48a1-b738-e0fc48e4aacd",
    "firstName": "Dyer",
    "lastName": "Horton",
    "birthDate": "Saturday, September 19, 1964 9:27 PM",
    "isAlive": true,
    "popularity": "73.49",
    "pictureUri": "http://placehold.it/64x64",
    "egot": 13
  },
  {
    "id": "56f8104f-edd5-4f86-9023-01af25945ace",
    "firstName": "Margery",
    "lastName": "Kim",
    "birthDate": "Friday, August 18, 1978 6:25 AM",
    "isAlive": true,
    "popularity": "97.11",
    "pictureUri": "http://placehold.it/64x64",
    "egot": 14
  },
  {
    "id": "ec63cb06-f765-4036-b665-6db55614cd1a",
    "firstName": "Jodie",
    "lastName": "Cruz",
    "birthDate": "Thursday, July 30, 1970 11:41 AM",
    "isAlive": true,
    "popularity": "26.97",
    "pictureUri": "http://placehold.it/64x64",
    "egot": 1
  },
  {
    "id": "24b6cd11-3034-4e38-adcd-4dd4dea07c2f",
    "firstName": "Everett",
    "lastName": "Potter",
    "birthDate": "Sunday, September 9, 2007 1:51 AM",
    "isAlive": true,
    "popularity": "65.61",
    "pictureUri": "http://placehold.it/64x64",
    "egot": 4
  },
  {
    "id": "79876aae-bf96-4346-841a-4f7a4bd3c717",
    "firstName": "Ester",
    "lastName": "Hanson",
    "birthDate": "Monday, August 6, 1973 5:14 AM",
    "isAlive": false,
    "popularity": "58.35",
    "pictureUri": "http://placehold.it/64x64",
    "egot": 1
  },
  {
    "id": "8753e692-31cb-4781-adba-5825cf4b4da7",
    "firstName": "Woods",
    "lastName": "Mejia",
    "birthDate": "Tuesday, September 3, 1968 12:19 PM",
    "isAlive": true,
    "popularity": "98.97",
    "pictureUri": "http://placehold.it/64x64",
    "egot": 10
  }
]
